<svg width="43" height="43" viewBox="0 0 43 43" fill="none" xmlns="http://www.w3.org/2000/svg">
<g filter="url(#filter0_d)">
<path d="M7.25629 30.8446V31.7446H8.15629H34.8438H35.7437V30.8446V28.4384C35.7437 27.9205 35.4471 27.5041 35.2047 27.2358C34.9363 26.9386 34.5771 26.6518 34.1721 26.3814C33.3569 25.8372 32.2337 25.2788 30.9321 24.7768C28.3285 23.7726 24.8819 22.9446 21.5 22.9446C18.1182 22.9446 14.6716 23.7726 12.068 24.7768C10.7664 25.2788 9.64314 25.8372 8.82793 26.3814C8.42295 26.6518 8.06377 26.9386 7.79531 27.2358C7.55294 27.5041 7.25629 27.9205 7.25629 28.4384V30.8446ZM13.65 8.75C13.65 4.41268 17.1627 0.9 21.5 0.9C25.8373 0.9 29.35 4.41268 29.35 8.75C29.35 13.0873 25.8373 16.6 21.5 16.6C17.1627 16.6 13.65 13.0873 13.65 8.75ZM26.9938 8.75085C26.9938 5.71631 24.5346 3.2571 21.5 3.2571C18.4655 3.2571 16.0063 5.7163 16.0063 8.75085C16.0063 11.7854 18.4655 14.2446 21.5 14.2446C24.5346 14.2446 26.9938 11.7854 26.9938 8.75085ZM4.9 28.4375C4.9 27.3134 5.45598 26.2621 6.52344 25.2769C7.59702 24.286 9.12692 23.424 10.8944 22.7159C14.431 21.2992 18.6922 20.5875 21.5 20.5875C24.3078 20.5875 28.569 21.2992 32.1056 22.7159C33.8731 23.424 35.403 24.286 36.4766 25.2769C37.544 26.2621 38.1 27.3134 38.1 28.4375V34.1H4.9V28.4375Z" fill="black" stroke="black" stroke-width="1.8"/>
</g>
<defs>
<filter id="filter0_d" x="0" y="0" width="43" height="43" filterUnits="userSpaceOnUse" color-interpolation-filters="sRGB">
<feFlood flood-opacity="0" result="BackgroundImageFix"/>
<feColorMatrix in="SourceAlpha" type="matrix" values="0 0 0 0 0 0 0 0 0 0 0 0 0 0 0 0 0 0 127 0"/>
<feOffset dy="4"/>
<feGaussianBlur stdDeviation="2"/>
<feColorMatrix type="matrix" values="0 0 0 0 0 0 0 0 0 0 0 0 0 0 0 0 0 0 0.25 0"/>
<feBlend mode="normal" in2="BackgroundImageFix" result="effect1_dropShadow"/>
<feBlend mode="normal" in="SourceGraphic" in2="effect1_dropShadow" result="shape"/>
</filter>
</defs>
</svg>
